Emerging status: modelling
…
We have now a compact version of the time series data for:

names(df_ts_compact)

## [1] "isBelgium"  "isFlanders" "isWallonia" "isBrussels" "natura2000"

Previews:

df_ts_compact %>% head()

## $isBelgium
## # A tibble: 46,592 × 7
##    taxonKey  year classKey   obs  cobs ncells c_ncells
##       <dbl> <dbl>    <dbl> <dbl> <dbl>  <dbl>    <dbl>
##  1  1003567  2014      139     1     0      1        0
##  2  1003567  2015      139     0     0      0        0
##  3  1003567  2016      139     0     0      0        0
##  4  1003567  2017      139     0     0      0        0
##  5  1003567  2018      139     3     0      2        0
##  6  1003567  2019      139     0     0      0        0
##  7  1003567  2020      139     0     0      0        0
##  8  1003567  2021      139     0     0      0        0
##  9  1003567  2022      139     0     0      0        0
## 10  1003567  2023      139     0     0      0        0
## # ℹ 46,582 more rows
## 
## $isFlanders
## # A tibble: 45,073 × 7
##    taxonKey  year classKey   obs  cobs ncells c_ncells
##       <dbl> <dbl>    <dbl> <dbl> <dbl>  <dbl>    <dbl>
##  1  1003567  2014      139     1     0      1        0
##  2  1003567  2015      139     0     0      0        0
##  3  1003567  2016      139     0     0      0        0
##  4  1003567  2017      139     0     0      0        0
##  5  1003567  2018      139     3     0      2        0
##  6  1003567  2019      139     0     0      0        0
##  7  1003567  2020      139     0     0      0        0
##  8  1003567  2021      139     0     0      0        0
##  9  1003567  2022      139     0     0      0        0
## 10  1003567  2023      139     0     0      0        0
## # ℹ 45,063 more rows
## 
## $isWallonia
## # A tibble: 32,230 × 7
##    taxonKey  year classKey   obs  cobs ncells c_ncells
##       <dbl> <dbl>    <dbl> <dbl> <dbl>  <dbl>    <dbl>
##  1  1016841  2020      361     1     0      1        0
##  2  1016841  2021      361     0     0      0        0
##  3  1016841  2022      361     0     0      0        0
##  4  1016841  2023      361     0     0      0        0
##  5  1016841  2024      361     0     0      0        0
##  6  1017419  2009      361     0     0      0        0
##  7  1017419  2010      361     0     0      0        0
##  8  1017419  2011      361     0     0      0        0
##  9  1017419  2012      361     0     0      0        0
## 10  1017419  2013      361     0     0      0        0
## # ℹ 32,220 more rows
## 
## $isBrussels
## # A tibble: 21,654 × 7
##    taxonKey  year classKey   obs  cobs ncells c_ncells
##       <dbl> <dbl>    <dbl> <dbl> <dbl>  <dbl>    <dbl>
##  1  1017419  2009      361     0     0      0        0
##  2  1017419  2010      361     0     0      0        0
##  3  1017419  2011      361     0     0      0        0
##  4  1017419  2012      361     0     0      0        0
##  5  1017419  2013      361     0     0      0        0
##  6  1017419  2014      361     0     0      0        0
##  7  1017419  2015      361     0     0      0        0
##  8  1017419  2016      361     0     0      0        0
##  9  1017419  2017      361     1     0      1        0
## 10  1017419  2018      361     0     0      0        0
## # ℹ 21,644 more rows
## 
## $natura2000
## # A tibble: 39,525 × 7
##    taxonKey  year classKey   obs  cobs ncells c_ncells
##       <dbl> <dbl>    <dbl> <dbl> <dbl>  <dbl>    <dbl>
##  1  1003567  2014      139     1     0      1        0
##  2  1003567  2015      139     0     0      0        0
##  3  1003567  2016      139     0     0      0        0
##  4  1003567  2017      139     0     0      0        0
##  5  1003567  2018      139     3     0      2        0
##  6  1003567  2019      139     0     0      0        0
##  7  1003567  2020      139     0     0      0        0
##  8  1003567  2021      139     0     0      0        0
##  9  1003567  2022      139     0     0      0        0
## 10  1003567  2023      139     0     0      0        0
## # ℹ 39,515 more rows
…
